{
  "extensionName": {
    "message": "Allow HTML Temp"
  },
  "extensionDescription": {
    "message": "Seçili mesajda geçici olarak HTML'e izin ver"
  },
  "button_label": {
    "message": "HTML Göster"
  },
  "button_tooltip": {
    "message": "Seçili mesajda HTML&apos;e geçici olarak izin ver."
  },
  "button_accesskey": {
    "message": "H"
  },
  "pref_options": {
    "message": "Preferences"
  },
  "pref_tab_general": {
    "message": "General"
  },
  "pref_tab_general_description": {
    "message": "To prevent malicious code execution (e.g. 'Locky' and 'Tesla') it is recommended to disable the support for HTML, JavaScript and inline Attachments in email."
  },
  "pref_tab_general_contents_description": {
    "message": "In case of original HTML some more content options can be set. Based on the options below remote content will be allowed, JavaScript enabled and the display of inline attachments enabled."
  },
  "pref_HeaderHtml_label": {
    "message": "HTML in email"
  },
  "pref_AppHtml_label": {
    "message": "Default setting"
  },
  "pref_ButtonHtml_label": {
    "message": "Click on 'Show HTML'"
  },
  "pref_HeaderRemoteContent_label": {
    "message": "Remote content (images, stylesheets, ...)"
  },
  "pref_remoteContentOption_label": {
    "message": "Allow remote content in general (not recommended)"
  },
  "pref_remoteContentOption_accesskey": {
    "message": "A"
  },
  "pref_forceRemoteContentOption_label": {
    "message": "Allow remote content for the selected message by click on 'Show HTML'"
  },
  "pref_forceRemoteContentOption_accesskey": {
    "message": "o"
  },
  "pref_HeaderJavaScript_label": {
    "message": "JavaScript"
  },
  "pref_jsOption_label": {
    "message": "Always enable JavaScript (this also affects Seamonkeys Browser!)"
  },
  "pref_jsOption_accesskey": {
    "message": "J"
  },
  "pref_jsTempOption_label": {
    "message": "Temporarily enable JavaScript by click on 'Show HTML'"
  },
  "pref_jsTempOption_accesskey": {
    "message": "T"
  },
  "pref_HeaderAttachments_label": {
    "message": "Attachments"
  },
  "pref_inlineOption_label": {
    "message": "Always show attachments inline (not recommended)"
  },
  "pref_inlineOption_accesskey": {
    "message": "w"
  },
  "pref_inlineTempOption_label": {
    "message": "Temporarily show attachments inline by click on 'Show HTML'"
  },
  "pref_inlineTempOption_accesskey": {
    "message": "m"
  },
  "pref_notRecommended_label": {
    "message": "(not recommended)"
  },
  "pref_tab_help": {
    "message": "Help"
  },
  "pref_tab_help_description": {
    "message": "Dieser Text muss noch ersetzt werden."
  }
}
